module bcvscrap

go 1.21.3

require (
	github.com/gocolly/colly v1.2.0
	github.com/gofiber/fiber/v2 v2.49.2
)

require (
	github.com/PuerkitoBio/goquery v1.5.1 // indirect
	github.com/andybalholm/brotli v1.0.5 // indirect
	github.com/andybalholm/cascadia v1.2.0 // indirect
	github.com/antchfx/htmlquery v1.2.3 // indirect
	github.com/antchfx/xmlquery v1.2.4 // indirect
	github.com/antchfx/xpath v1.1.8 // indirect
	github.com/davecgh/go-spew v1.1.1 // indirect
	github.com/gobwas/glob v0.2.3 // indirect
	github.com/golang/groupcache v0.0.0-20200121045136-8c9f03a8e57e // indirect
	github.com/golang/protobuf v1.4.2 // indirect
	github.com/google/uuid v1.3.1 // indirect
	github.com/kennygrant/sanitize v1.2.4 // indirect
	github.com/klauspost/compress v1.16.7 // indirect
	github.com/mattn/go-colorable v0.1.13 // indirect
	github.com/mattn/go-isatty v0.0.19 // indirect
	github.com/mattn/go-runewidth v0.0.15 // indirect
	github.com/rivo/uniseg v0.2.0 // indirect
	github.com/saintfish/chardet v0.0.0-20120816061221-3af4cd4741ca // indirect
	github.com/temoto/robotstxt v1.1.1 // indirect
	github.com/valyala/bytebufferpool v1.0.0 // indirect
	github.com/valyala/fasthttp v1.49.0 // indirect
	github.com/valyala/tcplisten v1.0.0 // indirect
	golang.org/x/net v0.8.0 // indirect
	golang.org/x/sys v0.12.0 // indirect
	golang.org/x/text v0.8.0 // indirect
	google.golang.org/appengine v1.6.6 // indirect
	google.golang.org/protobuf v1.24.0 // indirect
)
